{
  "prepare_queue": {
    "installed": [],
    "uninstalled": []
  },
  "config_munge": {
    "files": {}
  },
  "installed_plugins": {
    "call-number": {
      "PACKAGE_NAME": "com.OneQlikVTS.ionic"
    },
    "com.razorpay.cordova": {
      "PACKAGE_NAME": "com.OneQlikVTS.ionic"
    },
    "cordova-android-support-gradle-release": {
      "ANDROID_SUPPORT_VERSION": "27.+",
      "PACKAGE_NAME": "com.OneQlikVTS.ionic"
    },
    "cordova-clipboard": {
      "PACKAGE_NAME": "com.OneQlikVTS.ionic"
    },
    "cordova-plugin-android-permissions": {
      "PACKAGE_NAME": "com.OneQlikVTS.ionic"
    },
    "cordova-plugin-androidx": {
      "PACKAGE_NAME": "com.OneQlikVTS.ionic"
    },
    "cordova-plugin-androidx-adapter": {
      "PACKAGE_NAME": "com.OneQlikVTS.ionic"
    },
    "cordova-plugin-app-version": {
      "PACKAGE_NAME": "com.OneQlikVTS.ionic"
    },
    "cordova-plugin-camera": {
      "ANDROID_SUPPORT_V4_VERSION": "27.+",
      "PACKAGE_NAME": "com.OneQlikVTS.ionic"
    },
    "cordova-plugin-crop": {
      "PACKAGE_NAME": "com.OneQlikVTS.ionic"
    },
    "cordova-plugin-file": {
      "PACKAGE_NAME": "com.OneQlikVTS.ionic"
    },
    "cordova-plugin-file-transfer": {
      "PACKAGE_NAME": "com.OneQlikVTS.ionic"
    },
    "cordova-plugin-filepath": {
      "PACKAGE_NAME": "com.OneQlikVTS.ionic"
    },
    "cordova-plugin-geolocation": {
      "PACKAGE_NAME": "com.OneQlikVTS.ionic"
    },
    "cordova-plugin-googlemaps": {
      "PACKAGE_NAME": "com.OneQlikVTS.ionic"
    },
    "cordova-plugin-inappbrowser": {
      "PACKAGE_NAME": "com.OneQlikVTS.ionic"
    },
    "cordova-plugin-insomnia": {
      "PACKAGE_NAME": "com.OneQlikVTS.ionic"
    },
    "cordova-plugin-ionic-keyboard": {
      "PACKAGE_NAME": "com.OneQlikVTS.ionic"
    },
    "cordova-plugin-nativeaudio": {
      "PACKAGE_NAME": "com.OneQlikVTS.ionic"
    },
    "cordova-plugin-nativegeocoder": {
      "PACKAGE_NAME": "com.OneQlikVTS.ionic"
    },
    "cordova-plugin-network-information": {
      "PACKAGE_NAME": "com.OneQlikVTS.ionic"
    },
    "cordova-plugin-speechrecognition": {
      "PACKAGE_NAME": "com.OneQlikVTS.ionic"
    },
    "cordova-plugin-splashscreen": {
      "PACKAGE_NAME": "com.OneQlikVTS.ionic"
    },
    "cordova-plugin-statusbar": {
      "PACKAGE_NAME": "com.OneQlikVTS.ionic"
    },
    "cordova-plugin-tts": {
      "PACKAGE_NAME": "com.OneQlikVTS.ionic"
    },
    "cordova-plugin-whitelist": {
      "PACKAGE_NAME": "com.OneQlikVTS.ionic"
    },
    "cordova-sms-plugin": {
      "PACKAGE_NAME": "com.OneQlikVTS.ionic"
    },
    "phonegap-plugin-barcodescanner": {
      "ANDROID_SUPPORT_V4_VERSION": "27.+",
      "PACKAGE_NAME": "com.OneQlikVTS.ionic"
    },
    "phonegap-plugin-push": {
      "ANDROID_SUPPORT_V13_VERSION": "27.+",
      "FCM_VERSION": "17.0.+",
      "PACKAGE_NAME": "com.OneQlikVTS.ionic"
    },
    "cordova-plugin-ionic-webview": {
      "PACKAGE_NAME": "com.OneQlikVTS.ionic"
    },
    "cordova-plugin-x-socialsharing": {
      "PACKAGE_NAME": "com.magilugps.com"
    }
  },
  "dependent_plugins": {
    "com.googlemaps.ios": {
      "PACKAGE_NAME": "com.OneQlikVTS.ionic"
    },
    "cordova-plugin-cocoapod-support": {
      "PACKAGE_NAME": "com.OneQlikVTS.ionic"
    },
    "cordova-support-google-services": {
      "PACKAGE_NAME": "com.OneQlikVTS.ionic"
    },
    "phonegap-plugin-multidex": {
      "PACKAGE_NAME": "com.OneQlikVTS.ionic"
    },
    "es6-promise-plugin": {
      "PACKAGE_NAME": "com.magilugps.com"
    }
  }
}
